Stress in Focus: A Cross-Sectional Study on University Students’ Perceived Stress Levels
…
# Calculate odds ratio

tidymodel2 <- tidy(model2, conf.int = TRUE,
                   exponentiate = TRUE)

tidymodel2

# A tibble: 23 × 7
   term                  estimate std.error statistic p.value conf.low conf.high
   <chr>                    <dbl>     <dbl>     <dbl>   <dbl>    <dbl>     <dbl>
 1 (Intercept)              5.88      1.63      1.09    0.277   0.287     180.  
 2 GenderMale               1.23      0.411     0.513   0.608   0.557       2.82
 3 Study_YearFourth year    0.713     0.736    -0.460   0.646   0.142       2.78
 4 Study_YearPostgradua…    0.722     0.854    -0.382   0.703   0.123       3.88
 5 Study_YearSecond year    0.395     0.718    -1.29    0.195   0.0804      1.45
 6 Study_YearThird year     0.601     0.717    -0.710   0.478   0.123       2.24
 7 CGPAFair                 3.14      0.883     1.30    0.195   0.419      15.6 
 8 CGPAGood                 2.80      0.868     1.19    0.236   0.381      13.4 
 9 CGPAPoor                 2.59      1.03      0.919   0.358   0.281      19.0 
10 AttendanceYes            0.681     0.676    -0.569   0.570   0.148       2.27
# ℹ 13 more rows
…
